{
  "interactions" : [
    {
      "recorded_at" : 1459542759.56114,
      "response" : {
        "body" : {
          "previous" : null,
          "results" : [
            {
              "gender" : "male",
              "edited" : "2014-12-20T21:17:56.891000Z",
              "url" : "http:\/\/swapi.co\/api\/people\/1\/",
              "eye_color" : "blue",
              "birth_year" : "19BBY",
              "films" : [
                "http:\/\/swapi.co\/api\/films\/6\/",
                "http:\/\/swapi.co\/api\/films\/3\/",
                "http:\/\/swapi.co\/api\/films\/2\/",
                "http:\/\/swapi.co\/api\/films\/1\/",
                "http:\/\/swapi.co\/api\/films\/7\/"
              ],
              "species" : [
                "http:\/\/swapi.co\/api\/species\/1\/"
              ],
              "vehicles" : [
                "http:\/\/swapi.co\/api\/vehicles\/14\/",
                "http:\/\/swapi.co\/api\/vehicles\/30\/"
              ],
              "skin_color" : "fair",
              "starships" : [
                "http:\/\/swapi.co\/api\/starships\/12\/",
                "http:\/\/swapi.co\/api\/starships\/22\/"
              ],
              "height" : "172",
              "mass" : "77",
              "homeworld" : "http:\/\/swapi.co\/api\/planets\/1\/",
              "created" : "2014-12-09T13:50:51.644000Z",
              "name" : "Luke Skywalker",
              "hair_color" : "blond"
            },
            {
              "gender" : "n\/a",
              "edited" : "2014-12-20T21:17:50.309000Z",
              "url" : "http:\/\/swapi.co\/api\/people\/2\/",
              "eye_color" : "yellow",
              "birth_year" : "112BBY",
              "films" : [
                "http:\/\/swapi.co\/api\/films\/5\/",
                "http:\/\/swapi.co\/api\/films\/4\/",
                "http:\/\/swapi.co\/api\/films\/6\/",
                "http:\/\/swapi.co\/api\/films\/3\/",
                "http:\/\/swapi.co\/api\/films\/2\/",
                "http:\/\/swapi.co\/api\/films\/1\/"
              ],
              "species" : [
                "http:\/\/swapi.co\/api\/species\/2\/"
              ],
              "vehicles" : [

              ],
              "skin_color" : "gold",
              "starships" : [

              ],
              "height" : "167",
              "mass" : "75",
              "homeworld" : "http:\/\/swapi.co\/api\/planets\/1\/",
              "created" : "2014-12-10T15:10:51.357000Z",
              "name" : "C-3PO",
              "hair_color" : "n\/a"
            },
            {
              "gender" : "n\/a",
              "edited" : "2014-12-20T21:17:50.311000Z",
              "url" : "http:\/\/swapi.co\/api\/people\/3\/",
              "eye_color" : "red",
              "birth_year" : "33BBY",
              "films" : [
                "http:\/\/swapi.co\/api\/films\/5\/",
                "http:\/\/swapi.co\/api\/films\/4\/",
                "http:\/\/swapi.co\/api\/films\/6\/",
                "http:\/\/swapi.co\/api\/films\/3\/",
                "http:\/\/swapi.co\/api\/films\/2\/",
                "http:\/\/swapi.co\/api\/films\/1\/",
                "http:\/\/swapi.co\/api\/films\/7\/"
              ],
              "species" : [
                "http:\/\/swapi.co\/api\/species\/2\/"
              ],
              "vehicles" : [

              ],
              "skin_color" : "white, blue",
              "starships" : [

              ],
              "height" : "96",
              "mass" : "32",
              "homeworld" : "http:\/\/swapi.co\/api\/planets\/8\/",
              "created" : "2014-12-10T15:11:50.376000Z",
              "name" : "R2-D2",
              "hair_color" : "n\/a"
            },
            {
              "gender" : "male",
              "edited" : "2014-12-20T21:17:50.313000Z",
              "url" : "http:\/\/swapi.co\/api\/people\/4\/",
              "eye_color" : "yellow",
              "birth_year" : "41.9BBY",
              "films" : [
                "http:\/\/swapi.co\/api\/films\/6\/",
                "http:\/\/swapi.co\/api\/films\/3\/",
                "http:\/\/swapi.co\/api\/films\/2\/",
                "http:\/\/swapi.co\/api\/films\/1\/"
              ],
              "species" : [
                "http:\/\/swapi.co\/api\/species\/1\/"
              ],
              "vehicles" : [

              ],
              "skin_color" : "white",
              "starships" : [
                "http:\/\/swapi.co\/api\/starships\/13\/"
              ],
              "height" : "202",
              "mass" : "136",
              "homeworld" : "http:\/\/swapi.co\/api\/planets\/1\/",
              "created" : "2014-12-10T15:18:20.704000Z",
              "name" : "Darth Vader",
              "hair_color" : "none"
            },
            {
              "gender" : "female",
              "edited" : "2014-12-20T21:17:50.315000Z",
              "url" : "http:\/\/swapi.co\/api\/people\/5\/",
              "eye_color" : "brown",
              "birth_year" : "19BBY",
              "films" : [
                "http:\/\/swapi.co\/api\/films\/6\/",
                "http:\/\/swapi.co\/api\/films\/3\/",
                "http:\/\/swapi.co\/api\/films\/2\/",
                "http:\/\/swapi.co\/api\/films\/1\/",
                "http:\/\/swapi.co\/api\/films\/7\/"
              ],
              "species" : [
                "http:\/\/swapi.co\/api\/species\/1\/"
              ],
              "vehicles" : [
                "http:\/\/swapi.co\/api\/vehicles\/30\/"
              ],
              "skin_color" : "light",
              "starships" : [

              ],
              "height" : "150",
              "mass" : "49",
              "homeworld" : "http:\/\/swapi.co\/api\/planets\/2\/",
              "created" : "2014-12-10T15:20:09.791000Z",
              "name" : "Leia Organa",
              "hair_color" : "brown"
            },
            {
              "gender" : "male",
              "edited" : "2014-12-20T21:17:50.317000Z",
              "url" : "http:\/\/swapi.co\/api\/people\/6\/",
              "eye_color" : "blue",
              "birth_year" : "52BBY",
              "films" : [
                "http:\/\/swapi.co\/api\/films\/5\/",
                "http:\/\/swapi.co\/api\/films\/6\/",
                "http:\/\/swapi.co\/api\/films\/1\/"
              ],
              "species" : [
                "http:\/\/swapi.co\/api\/species\/1\/"
              ],
              "vehicles" : [

              ],
              "skin_color" : "light",
              "starships" : [

              ],
              "height" : "178",
              "mass" : "120",
              "homeworld" : "http:\/\/swapi.co\/api\/planets\/1\/",
              "created" : "2014-12-10T15:52:14.024000Z",
              "name" : "Owen Lars",
              "hair_color" : "brown, grey"
            },
            {
              "gender" : "female",
              "edited" : "2014-12-20T21:17:50.319000Z",
              "url" : "http:\/\/swapi.co\/api\/people\/7\/",
              "eye_color" : "blue",
              "birth_year" : "47BBY",
              "films" : [
                "http:\/\/swapi.co\/api\/films\/5\/",
                "http:\/\/swapi.co\/api\/films\/6\/",
                "http:\/\/swapi.co\/api\/films\/1\/"
              ],
              "species" : [
                "http:\/\/swapi.co\/api\/species\/1\/"
              ],
              "vehicles" : [

              ],
              "skin_color" : "light",
              "starships" : [

              ],
              "height" : "165",
              "mass" : "75",
              "homeworld" : "http:\/\/swapi.co\/api\/planets\/1\/",
              "created" : "2014-12-10T15:53:41.121000Z",
              "name" : "Beru Whitesun lars",
              "hair_color" : "brown"
            },
            {
              "gender" : "n\/a",
              "edited" : "2014-12-20T21:17:50.321000Z",
              "url" : "http:\/\/swapi.co\/api\/people\/8\/",
              "eye_color" : "red",
              "birth_year" : "unknown",
              "films" : [
                "http:\/\/swapi.co\/api\/films\/1\/"
              ],
              "species" : [
                "http:\/\/swapi.co\/api\/species\/2\/"
              ],
              "vehicles" : [

              ],
              "skin_color" : "white, red",
              "starships" : [

              ],
              "height" : "97",
              "mass" : "32",
              "homeworld" : "http:\/\/swapi.co\/api\/planets\/1\/",
              "created" : "2014-12-10T15:57:50.959000Z",
              "name" : "R5-D4",
              "hair_color" : "n\/a"
            },
            {
              "gender" : "male",
              "edited" : "2014-12-20T21:17:50.323000Z",
              "url" : "http:\/\/swapi.co\/api\/people\/9\/",
              "eye_color" : "brown",
              "birth_year" : "24BBY",
              "films" : [
                "http:\/\/swapi.co\/api\/films\/1\/"
              ],
              "species" : [
                "http:\/\/swapi.co\/api\/species\/1\/"
              ],
              "vehicles" : [

              ],
              "skin_color" : "light",
              "starships" : [
                "http:\/\/swapi.co\/api\/starships\/12\/"
              ],
              "height" : "183",
              "mass" : "84",
              "homeworld" : "http:\/\/swapi.co\/api\/planets\/1\/",
              "created" : "2014-12-10T15:59:50.509000Z",
              "name" : "Biggs Darklighter",
              "hair_color" : "black"
            },
            {
              "gender" : "male",
              "edited" : "2014-12-20T21:17:50.325000Z",
              "url" : "http:\/\/swapi.co\/api\/people\/10\/",
              "eye_color" : "blue-gray",
              "birth_year" : "57BBY",
              "films" : [
                "http:\/\/swapi.co\/api\/films\/5\/",
                "http:\/\/swapi.co\/api\/films\/4\/",
                "http:\/\/swapi.co\/api\/films\/6\/",
                "http:\/\/swapi.co\/api\/films\/3\/",
                "http:\/\/swapi.co\/api\/films\/2\/",
                "http:\/\/swapi.co\/api\/films\/1\/"
              ],
              "species" : [
                "http:\/\/swapi.co\/api\/species\/1\/"
              ],
              "vehicles" : [
                "http:\/\/swapi.co\/api\/vehicles\/38\/"
              ],
              "skin_color" : "fair",
              "starships" : [
                "http:\/\/swapi.co\/api\/starships\/48\/",
                "http:\/\/swapi.co\/api\/starships\/59\/",
                "http:\/\/swapi.co\/api\/starships\/64\/",
                "http:\/\/swapi.co\/api\/starships\/65\/",
                "http:\/\/swapi.co\/api\/starships\/74\/"
              ],
              "height" : "182",
              "mass" : "77",
              "homeworld" : "http:\/\/swapi.co\/api\/planets\/20\/",
              "created" : "2014-12-10T16:16:29.192000Z",
              "name" : "Obi-Wan Kenobi",
              "hair_color" : "auburn, white"
            }
          ],
          "count" : 87,
          "next" : "http:\/\/swapi.co\/api\/people\/?page=2&per_page=99"
        },
        "status" : 200,
        "url" : "http:\/\/swapi.co\/api\/people\/?per_page=99",
        "headers" : {
          "Content-Type" : "application\/json",
          "Via" : "1.1 vegur",
          "Server" : "cloudflare-nginx",
          "Content-Encoding" : "gzip",
          "Transfer-Encoding" : "Identity",
          "Allow" : "GET, HEAD, OPTIONS",
          "Date" : "Fri, 01 Apr 2016 20:31:54 GMT",
          "Connection" : "keep-alive",
          "CF-RAY" : "28cecead08e8099a-ORD",
          "Etag" : "W\/\"acaf206f6abde5324e6009d48705d119\"",
          "Vary" : "Accept, Cookie",
          "X-Frame-Options" : "SAMEORIGIN"
        }
      },
      "request" : {
        "method" : "GET",
        "url" : "https:\/\/swapi.co\/api\/people?per_page=99",
        "headers" : {
          "Accept-Encoding" : "gzip;q=1.0,compress;q=0.5",
          "User-Agent" : "Unknown\/Unknown (Unknown; OS Version 9.3 (Build 13E230))",
          "Accept-Language" : "en-US;q=1.0"
        }
      }
    }
  ],
  "name" : "people"
}
